Chapter 5 Calibration Curves with QQQ Data | R for Environmental Chemists
…
What you see here is a bit more than what you’d get from Excel’s ‘line-of-best fit’ output. See the section on Modelling for a better breakdown of what everything means. But for now, we can see that our r.squared of each calibration curve is pretty good, and the p.value indicates each model is significant. the adj.r.squared is the same as r.squared in this situation. This is because r.squared will always increase if we add more exploratory variables to our model; the adj.r.squared accounts for the number of exploratory variables used in the model. However, in our case we only have one exploratory variable, hence they’re the same.

But what about the slope and the intercept? After all, that’s what we need to calculate the concentration in our unknowns. Let’s take a look at the tidied from the tidy function “…which constructs a tibble that summarizes the model’s statistical findings. This includes coefficients and p-values for each term in a regression…”2

# storing because we'll use it later on. 

tidied <- calCurves %>% 
  unnest(tidied)

tidied

## # A tibble: 28 x 10
## # Groups:   cmpd, location [14]
##    cmpd  location data  fit   term  estimate std.error statistic  p.value
##    <chr> <chr>    <lis> <lis> <chr>    <dbl>     <dbl>     <dbl>    <dbl>
##  1 PFHxA 20MC     <tib~ <lm>  (Int~    0.729   0.388        1.88 9.66e- 2
##  2 PFHxA 20MC     <tib~ <lm>  conc     0.473   0.0111      42.5  1.04e-10
##  3 PFOA  20MC     <tib~ <lm>  (Int~    1.24    0.694        1.78 1.12e- 1
##  4 PFOA  20MC     <tib~ <lm>  conc     0.231   0.0199      11.6  2.82e- 6
##  5 PFNA  20MC     <tib~ <lm>  (Int~    0.289   0.205        1.41 1.95e- 1
##  6 PFNA  20MC     <tib~ <lm>  conc     0.415   0.00587     70.7  1.79e-12
##  7 PFDA  20MC     <tib~ <lm>  (Int~    0.592   0.348        1.70 1.27e- 1
##  8 PFDA  20MC     <tib~ <lm>  conc     0.361   0.00999     36.1  3.78e-10
##  9 PFHxS 20MC     <tib~ <lm>  (Int~    0.298   0.164        1.82 1.07e- 1
## 10 PFHxS 20MC     <tib~ <lm>  conc     0.459   0.00472     97.3  1.38e-13
## # ... with 18 more rows, and 1 more variable: glanced <list>
…
