Chapter 3 Importing Data Into R | R for Environmental Chemists
…
Make sure to save your file as a CSV, then copy and run the following code to import your long-formatted data into R.

library(tidyverse)
samples<-read_csv("your_file_name_here.csv")

## # A tibble: 242 x 3
##    Congener   Samples           Values
##    <chr>      <chr>              <dbl>
##  1 C10H12Cl10 Sludge1_undiluted      0
##  2 C10H13Cl9  Sludge1_undiluted      0
##  3 C10H14Cl8  Sludge1_undiluted      0
##  4 C10H15Cl7  Sludge1_undiluted      0
##  5 C10H16Cl6  Sludge1_undiluted      0
##  6 C10H17Cl5  Sludge1_undiluted      0
##  7 C11H13Cl11 Sludge1_undiluted      0
##  8 C11H14Cl10 Sludge1_undiluted      0
##  9 C11H15Cl9  Sludge1_undiluted      0
## 10 C11H16Cl8  Sludge1_undiluted      0
## # ... with 232 more rows

3.3 Converting Data to Long Format in R

Make sure your data file is saved as a CSV, then copy and run the following code to import the data into R.

library(tidyverse)
samples<-read_csv("your_file_name_here.csv")

I’ll use the same data file as above to illustrate. This is what the data will look like right after running the above code:

## # A tibble: 121 x 26
##    Congener Sludge1_undilut~ Sludge2_undilut~ Sludge3_undilut~ Sludge4_undilut~
##    <chr>               <dbl>            <dbl>            <dbl>            <dbl>
##  1 C10H12C~                0             0                   0             0   
##  2 C10H13C~                0             0                   0             0   
##  3 C10H14C~                0             0                   0             0   
##  4 C10H15C~                0             0                   0             0   
##  5 C10H16C~                0             0                   0             0   
##  6 C10H17C~                0             0                   0             0   
##  7 C11H13C~                0             0                   0             0   
##  8 C11H14C~                0             0                   0             0   
##  9 C11H15C~                0             0                   0             0   
## 10 C11H16C~                0             8.99                0             2.26
## # ... with 111 more rows, and 21 more variables: Sludge5_undiluted <dbl>,
## #   Sludge6_undiluted <dbl>, Sludge7_undiluted <dbl>, Sludge8_undiluted <dbl>,
## #   Sludge9_undiluted <dbl>, Sludge10_undiluted <dbl>,
## #   Sludge11_undiluted <dbl>, Sludge12_undiluted <dbl>,
## #   Sludge13_undiluted <dbl>, Sludge14_undiluted <dbl>,
## #   Sludge15_undiluted <dbl>, Sludge16_undiluted <dbl>,
## #   Sludge17_undiluted <dbl>, Sludge18_undiluted <dbl>,
## #   Sludge19_undiluted <dbl>, Sludge20_undiluted <dbl>,
## #   Sludge21_undiluted <dbl>, Sludge22_undiluted <dbl>,
…
Now we’re going to use something called a “pivot” to convert our data from wide to long format. The “pivot_long” function we’ll be using has 3 key parameters: cols, names_to, and values_to.

samples_long<-samples %>%
  pivot_longer(cols = !"Congener", names_to = "Sample", values_to = "Values")

cols tells the function which columns to pivot. Here I’ve used an exclamation mark to instead tell it to ignore the “Congener” column (i.e. pivot all columns EXCEPT for “Congener”)

names_to is the name we wish to give to the column which will contain all the sample names which used to be headers

values_to is the name which will be assigned to the column which will contain all the data values

And this is the resulting long-form data:

## # A tibble: 3,025 x 3
##    Congener   Sample            Values
##    <chr>      <chr>              <dbl>
##  1 C10H12Cl10 Sludge1_undiluted    0  
##  2 C10H13Cl9  Sludge1_undiluted    0  
##  3 C10H14Cl8  Sludge1_undiluted    0  
##  4 C10H15Cl7  Sludge1_undiluted    0  
##  5 C10H16Cl6  Sludge1_undiluted    0  
##  6 C10H17Cl5  Sludge1_undiluted    0  
##  7 C11H13Cl11 Sludge1_undiluted    0  
##  8 C11H14Cl10 Sludge1_undiluted    0  
##  9 C11H15Cl9  Sludge1_undiluted    0  
## 10 C11H16Cl8  Sludge1_undiluted    0  
## 11 C11H17Cl7  Sludge1_undiluted    0  
## 12 C11H18Cl6  Sludge1_undiluted    0  
## 13 C11H19Cl5  Sludge1_undiluted    0  
## 14 C12H14Cl12 Sludge1_undiluted    0  
## 15 C12H15Cl11 Sludge1_undiluted    0  
## 16 C12H16Cl10 Sludge1_undiluted    0  
## 17 C12H17Cl9  Sludge1_undiluted    0  
## 18 C12H18Cl8  Sludge1_undiluted    0  
## 19 C12H19Cl7  Sludge1_undiluted    0  
## 20 C12H20Cl6  Sludge1_undiluted    0  
## 21 C12H21Cl5  Sludge1_undiluted    0  
## 22 C13H15Cl13 Sludge1_undiluted    0  
## 23 C13H16Cl12 Sludge1_undiluted    0  
## 24 C13H17Cl11 Sludge1_undiluted    0  
## 25 C13H18Cl10 Sludge1_undiluted    0  
## 26 C13H19Cl9  Sludge1_undiluted    0  
## 27 C13H20Cl8  Sludge1_undiluted    0  
## 28 C13H21Cl7  Sludge1_undiluted   18.9
## 29 C13H22Cl6  Sludge1_undiluted    0  
## 30 C13H23Cl5  Sludge1_undiluted    0  
## # ... with 2,995 more rows
…
