Chapter 3 R Coding Basics | R for Environmental Chemists
…
naps, city, p, latitude, longitude to tell you where the data was measured.

data.time for when the measurements were taking. Note this is a datetime, which is a subset of numeric data. The values contained herein correspond to time elements such as year, month, data, and time.

pollutant for the chemical measured

concentration for the measured concentration in parts-per-million (ppm).

We’ve assigned it to the variable: airPol. This is so we can reference it and make use of it later on (see below). If we didn’t do this our data would simply be printed to the console which isn’t helpful. Let’s take a look at the data itself:

# a variable by itself will return it's contents
airPol

## # A tibble: 507 x 8
##     naps city    p     latitude longitude date.time           pollutant
##    <dbl> <chr>   <chr>    <dbl>     <dbl> <dttm>              <chr>    
##  1 60430 Toronto ON        43.7     -79.5 2018-01-01 00:00:00 O3       
##  2 60430 Toronto ON        43.7     -79.5 2018-01-01 00:00:00 NO2      
##  3 60430 Toronto ON        43.7     -79.5 2018-01-01 00:00:00 SO2      
##  4 60430 Toronto ON        43.7     -79.5 2018-01-01 01:00:00 O3       
##  5 60430 Toronto ON        43.7     -79.5 2018-01-01 01:00:00 NO2      
##  6 60430 Toronto ON        43.7     -79.5 2018-01-01 01:00:00 SO2      
##  7 60430 Toronto ON        43.7     -79.5 2018-01-01 02:00:00 O3       
##  8 60430 Toronto ON        43.7     -79.5 2018-01-01 02:00:00 NO2      
##  9 60430 Toronto ON        43.7     -79.5 2018-01-01 02:00:00 SO2      
## 10 60430 Toronto ON        43.7     -79.5 2018-01-01 03:00:00 O3       
## # ... with 497 more rows, and 1 more variable: concentration <dbl>
…
